…
Both datasets satisfy this condition, so we’ll grab the real data.

2.  Download selected data

``` r
get_group("CEER_MONTHLY_REAL")
#> # A tibble: 315 × 5
#>    broadm broad_xusm   mcm oitpm date      
#>     <dbl>      <dbl> <dbl> <dbl> <date>    
#>  1   96.5       94.7  96.3  97.6 1999-01-01
#>  2   98.9       98.5  98.5 101.  1999-02-01
#>  3   98.2       98.6  98.0  99.2 1999-03-01
#>  4  100.       100.  100.   99.0 1999-04-01
#>  5  102.       103.  102.  101.  1999-05-01
#>  6  102.       103.  102.  101.  1999-06-01
#>  7  101.       102.  101.   99.8 1999-07-01
#>  8   99.9      100.   99.8 100   1999-08-01
#>  9  100.        99.9 100.  101.  1999-09-01
#> 10  100.        99.3  99.8 101.  1999-10-01
#> # ℹ 305 more rows
```

3.  You can grab a bunch of observations with a map-reduce framework, or
    leverage the Bank of Canada’s own, comma-separated querying feature:

``` r
get_list("series") %>%
  subset(grepl("NOON", label)) %>%
  .$name %>%
  paste0(collapse = ",") %>%
  get_series()
#> # A tibble: 16,743 × 66
#>    date         CAD EUROCAE01 IEXE0101 IEXE0105 IEXE0301 IEXE0701 IEXE0901
#>    <date>     <dbl>     <dbl>    <dbl>    <dbl>    <dbl>    <dbl>    <dbl>
#>  1 1950-10-02     1        NA       NA       NA       NA       NA       NA
#>  2 1950-10-03     1        NA       NA       NA       NA       NA       NA
#>  3 1950-10-04     1        NA       NA       NA       NA       NA       NA
#>  4 1950-10-05     1        NA       NA       NA       NA       NA       NA
#>  5 1950-10-06     1        NA       NA       NA       NA       NA       NA
#>  6 1950-10-10     1        NA       NA       NA       NA       NA       NA
#>  7 1950-10-11     1        NA       NA       NA       NA       NA       NA
#>  8 1950-10-12     1        NA       NA       NA       NA       NA       NA
#>  9 1950-10-13     1        NA       NA       NA       NA       NA       NA
#> 10 1950-10-16     1        NA       NA       NA       NA       NA       NA
#> # ℹ 16,733 more rows
#> # ℹ 58 more variables: IEXE1001 <dbl>, IEXE1101 <dbl>, IEXE1201 <dbl>,
#> #   IEXE1401 <dbl>, IEXE1601 <dbl>, IEXE1901 <dbl>, IEXE2001 <dbl>,
#> #   IEXE2101 <dbl>, IEXE2201 <dbl>, IEXE2301 <dbl>, IEXE2401 <dbl>,
#> #   IEXE2501 <dbl>, IEXE2601 <dbl>, IEXE2702 <dbl>, IEXE2703 <dbl>,
#> #   IEXE2801 <dbl>, IEXE2901 <dbl>, IEXE3001 <dbl>, IEXE3101 <dbl>,
#> #   IEXE3201 <dbl>, IEXE3301 <dbl>, IEXE3401 <dbl>, IEXE3501 <dbl>, …
```
…
