Provide R Client to the Bank of Canada's Valet API • valet
…
Both datasets satisfy this condition, so we’ll grab the real data.

Download selected data

get_group("CEER_MONTHLY_REAL")
#> # A tibble: 276 × 5
#>    broadm broad_xusm   mcm oitpm date      
#>     <dbl>      <dbl> <dbl> <dbl> <date>    
#>  1   96.5       94.7  96.3  97.6 1999-01-01
#>  2   98.9       98.6  98.5 101.  1999-02-01
#>  3   98.2       98.6  98.0  99.2 1999-03-01
#>  4  100.       100.  100.   99.0 1999-04-01
#>  5  102.       103.  102.  101.  1999-05-01
#>  6  102.       103.  102.  101.  1999-06-01
#>  7  101.       102.  101    99.8 1999-07-01
#>  8   99.9      100.   99.8 100   1999-08-01
#>  9  100.        99.9 100.  101.  1999-09-01
#> 10  100.        99.3  99.8 101.  1999-10-01
#> # … with 266 more rows

You can grab a bunch of observations with a map-reduce framework, or leverage the Bank of Canada’s own, comma-separated querying feature:

get_list("series") %>%
  subset(grepl("NOON", label)) %>%
  .$name %>%
  paste0(collapse = ",") %>%
  get_series()
#> # A tibble: 2,504 × 64
#>    date       EUROCAE01 IEXE0101 IEXE0105 IEXE0301 IEXE0701 IEXE0901 IEXE1001
#>    <date>         <dbl>    <dbl>    <dbl>    <dbl>    <dbl>    <dbl>    <dbl>
#>  1 2007-05-01      1.51     1.11     1.11    0.202  0.00926    0.186     0.17
#>  2 2007-05-02      1.51     1.11     1.11    0.202  0.00924    0.186     0.17
#>  3 2007-05-03      1.50     1.11     1.10    0.202  0.00920    0.185     0.16
#>  4 2007-05-04      1.50     1.11     1.10    0.202  0.00921    0.185     0.16
#>  5 2007-05-07      1.50     1.10     1.10    0.201  0.00919    0.185     0.16
#>  6 2007-05-08      1.50     1.10     1.10    0.201  0.00921    0.184     0.16
#>  7 2007-05-09      1.50     1.11     1.10    0.201  0.00924    0.184     0.16
#>  8 2007-05-10      1.50     1.11     1.10    0.201  0.00920    0.183     0.16
#>  9 2007-05-11      1.51     1.11     1.11    0.202  0.00926    0.184     0.16
#> 10 2007-05-14      1.50     1.11     1.10    0.201  0.00920    0.183     0.16
#> # … with 2,494 more rows, and 56 more variables: IEXE1101 <dbl>,
#> #   IEXE1201 <dbl>, IEXE1401 <dbl>, IEXE1601 <dbl>, IEXE1901 <dbl>,
#> #   IEXE2001 <dbl>, IEXE2101 <dbl>, IEXE2201 <dbl>, IEXE2301 <dbl>,
#> #   IEXE2401 <dbl>, IEXE2501 <dbl>, IEXE2601 <dbl>, IEXE2702 <dbl>,
#> #   IEXE2703 <dbl>, IEXE2801 <dbl>, IEXE2901 <dbl>, IEXE3001 <dbl>,
#> #   IEXE3101 <dbl>, IEXE3201 <dbl>, IEXE3301 <dbl>, IEXE3401 <dbl>,
#> #   IEXE3501 <dbl>, IEXE3601 <dbl>, IEXE3701 <dbl>, IEXE3801 <dbl>, …
…
