An ideal valet workflow with R • valet
…
This output requires some understanding of what the dataset is. In this case, we want an amount to be purchased, so we understand how large the program could have been.

Download selected data

get_group("BANKERS_ACCEPTANCE_PURCHASE_FACILITY")
#> # A tibble: 24 × 8
#>    settlement_date maturity_date_start maturity_date_end amount_purchased
#>    <date>          <date>              <date>                       <dbl>
#>  1 2020-03-25      2020-03-26          2020-05-04                   15000
#>  2 2020-04-01      2020-04-02          2020-07-21                   20000
#>  3 2020-04-08      2020-04-09          2020-07-28                    5570
#>  4 2020-04-15      2020-04-16          2020-08-04                    2660
#>  5 2020-04-22      2020-04-23          2020-08-11                     190
#>  6 2020-04-29      2020-04-30          2020-08-18                    3630
#>  7 2020-05-06      2020-05-07          2020-08-25                       0
#>  8 2020-05-13      2020-05-14          2020-09-01                       0
#>  9 2020-05-20      2020-05-21          2020-09-08                       0
#> 10 2020-05-27      2020-05-28          2020-09-15                       0
#> # … with 14 more rows, and 4 more variables: amount_to_be_purchased <dbl>,
#> #   reserve_rate <dbl>, weighted_avg_yield <dbl>, date <date>

You can grab a bunch of observations with a map-reduce framework, or leverage the Bank of Canada’s own, comma-separated querying feature:

get_list("series") %>%
  subset(grepl("NOON", label)) %>%
  .$name %>%
  paste0(collapse = ",") %>%
  get_series()
#> # A tibble: 2,504 × 64
#>    date       EUROCAE01 IEXE0101 IEXE0105 IEXE0301 IEXE0701 IEXE0901 IEXE1001
#>    <date>         <dbl>    <dbl>    <dbl>    <dbl>    <dbl>    <dbl>    <dbl>
#>  1 2007-05-01      1.51     1.11     1.11    0.202  0.00926    0.186     0.17
#>  2 2007-05-02      1.51     1.11     1.11    0.202  0.00924    0.186     0.17
#>  3 2007-05-03      1.50     1.11     1.10    0.202  0.00920    0.185     0.16
#>  4 2007-05-04      1.50     1.11     1.10    0.202  0.00921    0.185     0.16
#>  5 2007-05-07      1.50     1.10     1.10    0.201  0.00919    0.185     0.16
#>  6 2007-05-08      1.50     1.10     1.10    0.201  0.00921    0.184     0.16
#>  7 2007-05-09      1.50     1.11     1.10    0.201  0.00924    0.184     0.16
#>  8 2007-05-10      1.50     1.11     1.10    0.201  0.00920    0.183     0.16
#>  9 2007-05-11      1.51     1.11     1.11    0.202  0.00926    0.184     0.16
#> 10 2007-05-14      1.50     1.11     1.10    0.201  0.00920    0.183     0.16
#> # … with 2,494 more rows, and 56 more variables: IEXE1101 <dbl>,
#> #   IEXE1201 <dbl>, IEXE1401 <dbl>, IEXE1601 <dbl>, IEXE1901 <dbl>,
#> #   IEXE2001 <dbl>, IEXE2101 <dbl>, IEXE2201 <dbl>, IEXE2301 <dbl>,
#> #   IEXE2401 <dbl>, IEXE2501 <dbl>, IEXE2601 <dbl>, IEXE2702 <dbl>,
#> #   IEXE2703 <dbl>, IEXE2801 <dbl>, IEXE2901 <dbl>, IEXE3001 <dbl>,
#> #   IEXE3101 <dbl>, IEXE3201 <dbl>, IEXE3301 <dbl>, IEXE3401 <dbl>,
#> #   IEXE3501 <dbl>, IEXE3601 <dbl>, IEXE3701 <dbl>, IEXE3801 <dbl>, …
…
